2020-05-07 20:17:16 [INFO] <KERNEL> Starting common-lisp kernel
2020-05-07 20:17:16 [INFO] <KERNEL> Parsing connection file /root/.local/share/jupyter/runtime/kernel-98ebf6f5-a8a7-4dd8-9efc-6aa698f02562.json
2020-05-07 20:17:16 [INFO] <MAC> Starting message authentification
2020-05-07 20:17:16 [INFO] <MAC> Using hmac with sha256 digest for message signing.
2020-05-07 20:17:16 [INFO] <HB-CHANNEL> Starting channel on tcp://127.0.0.1:34325
2020-05-07 20:17:16 [INFO] <IOPUB-CHANNEL> Starting channel on tcp://127.0.0.1:59633
2020-05-07 20:17:16 [INFO] <SHELL-CHANNEL> Starting channel on tcp://127.0.0.1:38823
2020-05-07 20:17:16 [INFO] <STDIN-CHANNEL> Starting channel on tcp://127.0.0.1:52843
2020-05-07 20:17:16 [INFO] <HISTORY> Starting history
2020-05-07 20:17:16 [INFO] <HB-CHANNEL> Starting thread
2020-05-07 20:17:16 [INFO] <KERNEL> Handling kernel_info_request message
2020-05-07 20:17:16 [INFO] <KERNEL> Handling kernel_info_request message
2020-05-07 20:17:16 [INFO] <KERNEL> Handling kernel_info_request message
2020-05-07 20:17:16 [INFO] <KERNEL> Handling comm_info_request message
2020-05-07 20:17:16 [INFO] <KERNEL> Handling comm_info_request message
2020-05-07 20:17:17 [INFO] <KERNEL> Handling execute_request message
2020-05-07 20:17:18 [INFO] <KERNEL> Handling execute_request message
2020-05-07 20:17:19 [INFO] <KERNEL> Handling execute_request message
2020-05-07 20:17:20 [INFO] <KERNEL> Handling execute_request message
2020-05-07 20:17:20 [INFO] <KERNEL> Handling execute_request message
2020-05-07 20:17:21 [INFO] <KERNEL> Handling execute_request message
2020-05-07 20:17:22 [INFO] <KERNEL> Handling execute_request message
